<svg xmlns="http://www.w3.org/2000/svg" width="333" height="75.521" viewBox="0 0 333 75.521">
  <path id="triangle" d="M333,662.479,162.841,738,0,662.479Z" transform="translate(0 -662.479)" fill="rgba(34,90,147,0.07)"/>
</svg>
